======================================================
Starting ComputeMain...
Data file .\exercises\informationstheorie\testdata\source_1.txt exists.
Reading file ...
Character types in file: 2
Number of character in file: 1000000.0
Entropy of file: 0.9999993072177304

      - : o=  499510  p=0.4995100000  i=1.0014145344
      O : o=  500490  p=0.5004900000  i=0.9985868512
Done.
======================================================