======================================================
Starting ComputeMain...
Data file .\exercises\informationstheorie\testdata\source_5.txt exists.
Reading file ...
Character types in file: 18
Number of character in file: 100.0
Entropy of file: 3.720492766070573

   (32) : o=      22  p=0.2200000000  i=2.1844245711
      a : o=       7  p=0.0700000000  i=3.8365012677
      b : o=       1  p=0.0100000000  i=6.6438561898
      c : o=       3  p=0.0300000000  i=5.0588936891
      d : o=       7  p=0.0700000000  i=3.8365012677
      e : o=      10  p=0.1000000000  i=3.3219280949
      f : o=       2  p=0.0200000000  i=5.6438561898
      h : o=       5  p=0.0500000000  i=4.3219280949
      i : o=       7  p=0.0700000000  i=3.8365012677
      m : o=       2  p=0.0200000000  i=5.6438561898
      n : o=       9  p=0.0900000000  i=3.4739311883
      o : o=       4  p=0.0400000000  i=4.6438561898
      r : o=       7  p=0.0700000000  i=3.8365012677
      s : o=       6  p=0.0600000000  i=4.0588936891
      t : o=       2  p=0.0200000000  i=5.6438561898
      u : o=       4  p=0.0400000000  i=4.6438561898
      v : o=       1  p=0.0100000000  i=6.6438561898
      w : o=       1  p=0.0100000000  i=6.6438561898
Done.
======================================================